^C:\USERS\MIHAJLO\SOURCE\REPOS\GDITRAINING\GDITRAINING\STDAFX.CPP
/c /ZI /JMC /nologo /W3 /WX- /diagnostics:classic /sdl /Od /Oy- /D WIN32 /D _WINDOWS /D _DEBUG /D _UNICODE /D UNICODE /D _AFXDLL /Gm- /EHsc /RTC1 /MDd /GS /fp:precise /Zc:wchar_t /Zc:forScope /Zc:inline /Yc"stdafx.h" /Fp"DEBUG\GDITRAINING.PCH" /Fo"DEBUG\\" /Fd"DEBUG\VC141.PDB" /Gd /TP /analyze- /FC C:\USERS\MIHAJLO\SOURCE\REPOS\GDITRAINING\GDITRAINING\STDAFX.CPP
^C:\USERS\MIHAJLO\SOURCE\REPOS\GDITRAINING\GDITRAINING\GDITRAININGDOC.CPP
/c /ZI /JMC /nologo /W3 /WX- /diagnostics:classic /sdl /Od /Oy- /D WIN32 /D _WINDOWS /D _DEBUG /D _UNICODE /D UNICODE /D _AFXDLL /Gm- /EHsc /RTC1 /MDd /GS /fp:precise /Zc:wchar_t /Zc:forScope /Zc:inline /Yu"stdafx.h" /Fp"DEBUG\GDITRAINING.PCH" /Fo"DEBUG\\" /Fd"DEBUG\VC141.PDB" /Gd /TP /analyze- /FC C:\USERS\MIHAJLO\SOURCE\REPOS\GDITRAINING\GDITRAINING\GDITRAININGDOC.CPP
^C:\USERS\MIHAJLO\SOURCE\REPOS\GDITRAINING\GDITRAINING\MAINFRM.CPP
/c /ZI /JMC /nologo /W3 /WX- /diagnostics:classic /sdl /Od /Oy- /D WIN32 /D _WINDOWS /D _DEBUG /D _UNICODE /D UNICODE /D _AFXDLL /Gm- /EHsc /RTC1 /MDd /GS /fp:precise /Zc:wchar_t /Zc:forScope /Zc:inline /Yu"stdafx.h" /Fp"DEBUG\GDITRAINING.PCH" /Fo"DEBUG\\" /Fd"DEBUG\VC141.PDB" /Gd /TP /analyze- /FC C:\USERS\MIHAJLO\SOURCE\REPOS\GDITRAINING\GDITRAINING\MAINFRM.CPP
^C:\USERS\MIHAJLO\SOURCE\REPOS\GDITRAINING\GDITRAINING\GDITRAINING.CPP
/c /ZI /JMC /nologo /W3 /WX- /diagnostics:classic /sdl /Od /Oy- /D WIN32 /D _WINDOWS /D _DEBUG /D _UNICODE /D UNICODE /D _AFXDLL /Gm- /EHsc /RTC1 /MDd /GS /fp:precise /Zc:wchar_t /Zc:forScope /Zc:inline /Yu"stdafx.h" /Fp"DEBUG\GDITRAINING.PCH" /Fo"DEBUG\\" /Fd"DEBUG\VC141.PDB" /Gd /TP /analyze- /FC C:\USERS\MIHAJLO\SOURCE\REPOS\GDITRAINING\GDITRAINING\GDITRAINING.CPP
^C:\USERS\MIHAJLO\SOURCE\REPOS\GDITRAINING\GDITRAINING\GDITRAININGVIEW.CPP
/c /ZI /JMC /nologo /W3 /WX- /diagnostics:classic /sdl /Od /Oy- /D WIN32 /D _WINDOWS /D _DEBUG /D _UNICODE /D UNICODE /D _AFXDLL /Gm- /EHsc /RTC1 /MDd /GS /fp:precise /Zc:wchar_t /Zc:forScope /Zc:inline /Yu"stdafx.h" /Fp"DEBUG\GDITRAINING.PCH" /Fo"DEBUG\\" /Fd"DEBUG\VC141.PDB" /Gd /TP /analyze- /FC C:\USERS\MIHAJLO\SOURCE\REPOS\GDITRAINING\GDITRAINING\GDITRAININGVIEW.CPP
^C:\USERS\MIHAJLO\SOURCE\REPOS\GDITRAINING\GDITRAINING\GDITRAININGVIEWHASAMI.CPP
/c /ZI /JMC /nologo /W3 /WX- /diagnostics:classic /sdl /Od /Oy- /D WIN32 /D _WINDOWS /D _DEBUG /D _UNICODE /D UNICODE /D _AFXDLL /Gm- /EHsc /RTC1 /MDd /GS /fp:precise /Zc:wchar_t /Zc:forScope /Zc:inline /Yu"stdafx.h" /Fp"DEBUG\GDITRAINING.PCH" /Fo"DEBUG\\" /Fd"DEBUG\VC141.PDB" /Gd /TP /analyze- /FC C:\USERS\MIHAJLO\SOURCE\REPOS\GDITRAINING\GDITRAINING\GDITRAININGVIEWHASAMI.CPP
^E:\GIT PROJECTS\GDITRAINING\GDITRAINING\GDITRAINING\STDAFX.CPP
/c /ZI /JMC /nologo /W3 /WX- /diagnostics:classic /sdl /Od /Oy- /D WIN32 /D _WINDOWS /D _DEBUG /D _UNICODE /D UNICODE /D _AFXDLL /Gm- /EHsc /RTC1 /MDd /GS /fp:precise /Zc:wchar_t /Zc:forScope /Zc:inline /Yc"stdafx.h" /Fp"DEBUG\GDITRAINING.PCH" /Fo"DEBUG\\" /Fd"DEBUG\VC141.PDB" /Gd /TP /analyze- /FC E:\GIT PROJECTS\GDITRAINING\GDITRAINING\GDITRAINING\STDAFX.CPP
^E:\GIT PROJECTS\GDITRAINING\GDITRAINING\GDITRAINING\GDITRAININGDOC.CPP
/c /ZI /JMC /nologo /W3 /WX- /diagnostics:classic /sdl /Od /Oy- /D WIN32 /D _WINDOWS /D _DEBUG /D _UNICODE /D UNICODE /D _AFXDLL /Gm- /EHsc /RTC1 /MDd /GS /fp:precise /Zc:wchar_t /Zc:forScope /Zc:inline /Yu"stdafx.h" /Fp"DEBUG\GDITRAINING.PCH" /Fo"DEBUG\\" /Fd"DEBUG\VC141.PDB" /Gd /TP /analyze- /FC E:\GIT PROJECTS\GDITRAINING\GDITRAINING\GDITRAINING\GDITRAININGDOC.CPP
^E:\GIT PROJECTS\GDITRAINING\GDITRAINING\GDITRAINING\MAINFRM.CPP
/c /ZI /JMC /nologo /W3 /WX- /diagnostics:classic /sdl /Od /Oy- /D WIN32 /D _WINDOWS /D _DEBUG /D _UNICODE /D UNICODE /D _AFXDLL /Gm- /EHsc /RTC1 /MDd /GS /fp:precise /Zc:wchar_t /Zc:forScope /Zc:inline /Yu"stdafx.h" /Fp"DEBUG\GDITRAINING.PCH" /Fo"DEBUG\\" /Fd"DEBUG\VC141.PDB" /Gd /TP /analyze- /FC E:\GIT PROJECTS\GDITRAINING\GDITRAINING\GDITRAINING\MAINFRM.CPP
^E:\GIT PROJECTS\GDITRAINING\GDITRAINING\GDITRAINING\DIMAGE.CPP
/c /ZI /JMC /nologo /W3 /WX- /diagnostics:classic /sdl /Od /Oy- /D WIN32 /D _WINDOWS /D _DEBUG /D _UNICODE /D UNICODE /D _AFXDLL /Gm- /EHsc /RTC1 /MDd /GS /fp:precise /Zc:wchar_t /Zc:forScope /Zc:inline /Yu"stdafx.h" /Fp"DEBUG\GDITRAINING.PCH" /Fo"DEBUG\\" /Fd"DEBUG\VC141.PDB" /Gd /TP /analyze- /FC E:\GIT PROJECTS\GDITRAINING\GDITRAINING\GDITRAINING\DIMAGE.CPP
^E:\GIT PROJECTS\GDITRAINING\GDITRAINING\GDITRAINING\GDITRAINING.CPP
/c /ZI /JMC /nologo /W3 /WX- /diagnostics:classic /sdl /Od /Oy- /D WIN32 /D _WINDOWS /D _DEBUG /D _UNICODE /D UNICODE /D _AFXDLL /Gm- /EHsc /RTC1 /MDd /GS /fp:precise /Zc:wchar_t /Zc:forScope /Zc:inline /Yu"stdafx.h" /Fp"DEBUG\GDITRAINING.PCH" /Fo"DEBUG\\" /Fd"DEBUG\VC141.PDB" /Gd /TP /analyze- /FC E:\GIT PROJECTS\GDITRAINING\GDITRAINING\GDITRAINING\GDITRAINING.CPP
^E:\GIT PROJECTS\GDITRAINING\GDITRAINING\GDITRAINING\GDITRAININGVIEWCLIO.CPP
/c /ZI /JMC /nologo /W3 /WX- /diagnostics:classic /sdl /Od /Oy- /D WIN32 /D _WINDOWS /D _DEBUG /D _UNICODE /D UNICODE /D _AFXDLL /Gm- /EHsc /RTC1 /MDd /GS /fp:precise /Zc:wchar_t /Zc:forScope /Zc:inline /Yu"stdafx.h" /Fp"DEBUG\GDITRAINING.PCH" /Fo"DEBUG\\" /Fd"DEBUG\VC141.PDB" /Gd /TP /analyze- /FC E:\GIT PROJECTS\GDITRAINING\GDITRAINING\GDITRAINING\GDITRAININGVIEWCLIO.CPP
^E:\GIT PROJECTS\GDITRAINING\GDITRAINING\GDITRAINING\GDITRAININGVIEWHASAMI.CPP
/c /ZI /JMC /nologo /W3 /WX- /diagnostics:classic /sdl /Od /Oy- /D WIN32 /D _WINDOWS /D _DEBUG /D _UNICODE /D UNICODE /D _AFXDLL /Gm- /EHsc /RTC1 /MDd /GS /fp:precise /Zc:wchar_t /Zc:forScope /Zc:inline /Yu"stdafx.h" /Fp"DEBUG\GDITRAINING.PCH" /Fo"DEBUG\\" /Fd"DEBUG\VC141.PDB" /Gd /TP /analyze- /FC E:\GIT PROJECTS\GDITRAINING\GDITRAINING\GDITRAINING\GDITRAININGVIEWHASAMI.CPP
^E:\GIT PROJECTS\GDITRAINING\GDITRAINING\GDITRAINING\GDITRAININGVIEWHAVANA.CPP
/c /ZI /JMC /nologo /W3 /WX- /diagnostics:classic /sdl /Od /Oy- /D WIN32 /D _WINDOWS /D _DEBUG /D _UNICODE /D UNICODE /D _AFXDLL /Gm- /EHsc /RTC1 /MDd /GS /fp:precise /Zc:wchar_t /Zc:forScope /Zc:inline /Yu"stdafx.h" /Fp"DEBUG\GDITRAINING.PCH" /Fo"DEBUG\\" /Fd"DEBUG\VC141.PDB" /Gd /TP /analyze- /FC E:\GIT PROJECTS\GDITRAINING\GDITRAINING\GDITRAINING\GDITRAININGVIEWHAVANA.CPP
^E:\GIT PROJECTS\GDITRAINING\GDITRAINING\GDITRAINING\GDITRAININGVIEW.CPP
/c /ZI /JMC /nologo /W3 /WX- /diagnostics:classic /sdl /Od /Oy- /D WIN32 /D _WINDOWS /D _DEBUG /D _UNICODE /D UNICODE /D _AFXDLL /Gm- /EHsc /RTC1 /MDd /GS /fp:precise /Zc:wchar_t /Zc:forScope /Zc:inline /Yu"stdafx.h" /Fp"DEBUG\GDITRAINING.PCH" /Fo"DEBUG\\" /Fd"DEBUG\VC141.PDB" /Gd /TP /analyze- /FC E:\GIT PROJECTS\GDITRAINING\GDITRAINING\GDITRAINING\GDITRAININGVIEW.CPP
