^C:\USERS\MIHAJLO\SOURCE\REPOS\GDITRAINING\GDITRAINING\GDITRAINING.RC
/D _DEBUG /D _UNICODE /D UNICODE /D _AFXDLL /l"0x0409" /IDEBUG\ /nologo /fo"DEBUG\GDITRAINING.RES"   C:\USERS\MIHAJLO\SOURCE\REPOS\GDITRAINING\GDITRAINING\GDITRAINING.RC
^E:\GIT PROJECTS\GDITRAINING\GDITRAINING\GDITRAINING\GDITRAINING.RC
/D _DEBUG /D _UNICODE /D UNICODE /D _AFXDLL /l"0x0409" /IDEBUG\ /nologo /fo"DEBUG\GDITRAINING.RES"   E:\GIT PROJECTS\GDITRAINING\GDITRAINING\GDITRAINING\GDITRAINING.RC
